Overview • bonds
…
# there are 3548 bonds
df_bonds %>%
  summarize(n_distinct(bond_id))
#> # A tibble: 1 × 1
#>   `n_distinct(bond_id)`
#>                   <int>
#> 1                  3548

# there are up to 4600 samples per bond_id.
df_samples %>%
  count(bond_id, sort=T)
#> # A tibble: 3,548 × 2
#>    bond_id     n
#>      <int> <int>
#>  1    1408  4645
#>  2    1628  4550
#>  3    1562  4295
#>  4    1342  4200
#>  5    1364  4200
#>  6    1386  4200
#>  7    1430  4200
#>  8    1452  4200
#>  9    1474  4200
#> 10    1496  4200
#> # … with 3,538 more rows
…
#>             Pass   2   2   3   2   2   1   1   2   3   3   4   2   4   2   2
#>                 wire_number
#> pull_test_status  61  63  64  66  68  69  70  72  73  74  75  77  78  79  80
#>             Fail   0   0   0   0   0   0   0 129   0   0   0   0   0   0   0
#>             Pass   1   2   3   2   1   1   1   1   1   3   2   3   1   2   1
#>                 wire_number
#> pull_test_status  81
#>             Fail   0
#>             Pass   1
downsampled_data %>%
  group_by(pull_test_status, VOLT) %>%
  count() %>%
  arrange(desc(VOLT)) %>%
  pivot_wider(names_from=pull_test_status, values_from=n) 
#> # A tibble: 43 × 3
#> # Groups:   VOLT [43]
#>     VOLT  Pass  Fail
#>    <int> <int> <int>
#>  1   131     2    NA
#>  2   130    22    NA
#>  3   129     8    NA
#>  4   127     8    NA
#>  5   126    17    NA
#>  6   125    40    NA
#>  7   124    13    NA
#>  8   123     2    NA
#>  9   122     2    NA
#> 10   121     2    NA
#> # … with 33 more rows
…
